%!PS-Adobe-2.0
%%Title: Na_chain_bands_1D_3D.eps
%%Creator: gnuplot 5.0 patchlevel rc2
%%CreationDate: Thu Aug 23 17:11:41 2018
%%DocumentFonts: (atend)
%%BoundingBox: 50 50 662 842
%%Orientation: Landscape
%%Pages: (atend)
%%EndComments
%%BeginProlog
/gnudict 256 dict def
gnudict begin
%
% The following true/false flags may be edited by hand if desired.
% The unit line width and grayscale image gamma correction may also be changed.
%
/Color true def
/Blacktext false def
/Solid false def
/Dashlength 1 def
/Landscape true def
/Level1 false def
/Level3 false def
/Rounded false def
/ClipToBoundingBox false def
/SuppressPDFMark false def
/TransparentPatterns false def
/gnulinewidth 5.000 def
/userlinewidth gnulinewidth def
/Gamma 1.0 def
/BackgroundColor {-1.000 -1.000 -1.000} def
%
/vshift -83 def
/dl1 {
  10.0 Dashlength userlinewidth gnulinewidth div mul mul mul
  Rounded { currentlinewidth 0.75 mul sub dup 0 le { pop 0.01 } if } if
} def
/dl2 {
  10.0 Dashlength userlinewidth gnulinewidth div mul mul mul
  Rounded { currentlinewidth 0.75 mul add } if
} def
/hpt_ 31.5 def
/vpt_ 31.5 def
/hpt hpt_ def
/vpt vpt_ def
/doclip {
  ClipToBoundingBox {
    newpath 50 50 moveto 662 50 lineto 662 842 lineto 50 842 lineto closepath
    clip
  } if
} def
%
% Gnuplot Prolog Version 5.0 (Apr 2014)
%
%/SuppressPDFMark true def
%
/M {moveto} bind def
/L {lineto} bind def
/R {rmoveto} bind def
/V {rlineto} bind def
/N {newpath moveto} bind def
/Z {closepath} bind def
/C {setrgbcolor} bind def
/f {rlineto fill} bind def
/g {setgray} bind def
/Gshow {show} def   % May be redefined later in the file to support UTF-8
/vpt2 vpt 2 mul def
/hpt2 hpt 2 mul def
/Lshow {currentpoint stroke M 0 vshift R 
	Blacktext {gsave 0 setgray textshow grestore} {textshow} ifelse} def
/Rshow {currentpoint stroke M dup stringwidth pop neg vshift R
	Blacktext {gsave 0 setgray textshow grestore} {textshow} ifelse} def
/Cshow {currentpoint stroke M dup stringwidth pop -2 div vshift R 
	Blacktext {gsave 0 setgray textshow grestore} {textshow} ifelse} def
/UP {dup vpt_ mul /vpt exch def hpt_ mul /hpt exch def
  /hpt2 hpt 2 mul def /vpt2 vpt 2 mul def} def
/DL {Color {setrgbcolor Solid {pop []} if 0 setdash}
 {pop pop pop 0 setgray Solid {pop []} if 0 setdash} ifelse} def
/BL {stroke userlinewidth 2 mul setlinewidth
	Rounded {1 setlinejoin 1 setlinecap} if} def
/AL {stroke userlinewidth 2 div setlinewidth
	Rounded {1 setlinejoin 1 setlinecap} if} def
/UL {dup gnulinewidth mul /userlinewidth exch def
	dup 1 lt {pop 1} if 10 mul /udl exch def} def
/PL {stroke userlinewidth setlinewidth
	Rounded {1 setlinejoin 1 setlinecap} if} def
3.8 setmiterlimit
% Default Line colors
/LCw {1 1 1} def
/LCb {0 0 0} def
/LCa {0 0 0} def
/LC0 {1 0 0} def
/LC1 {0 1 0} def
/LC2 {0 0 1} def
/LC3 {1 0 1} def
/LC4 {0 1 1} def
/LC5 {1 1 0} def
/LC6 {0 0 0} def
/LC7 {1 0.3 0} def
/LC8 {0.5 0.5 0.5} def
% Default Line Types
/LTw {PL [] 1 setgray} def
/LTb {BL [] LCb DL} def
/LTa {AL [1 udl mul 2 udl mul] 0 setdash LCa setrgbcolor} def
/LT0 {PL [] LC0 DL} def
/LT1 {PL [4 dl1 2 dl2] LC1 DL} def
/LT2 {PL [2 dl1 3 dl2] LC2 DL} def
/LT3 {PL [1 dl1 1.5 dl2] LC3 DL} def
/LT4 {PL [6 dl1 2 dl2 1 dl1 2 dl2] LC4 DL} def
/LT5 {PL [3 dl1 3 dl2 1 dl1 3 dl2] LC5 DL} def
/LT6 {PL [2 dl1 2 dl2 2 dl1 6 dl2] LC6 DL} def
/LT7 {PL [1 dl1 2 dl2 6 dl1 2 dl2 1 dl1 2 dl2] LC7 DL} def
/LT8 {PL [2 dl1 2 dl2 2 dl1 2 dl2 2 dl1 2 dl2 2 dl1 4 dl2] LC8 DL} def
/SL {[] 0 setdash} def
/Pnt {stroke [] 0 setdash gsave 1 setlinecap M 0 0 V stroke grestore} def
/Dia {stroke [] 0 setdash 2 copy vpt add M
  hpt neg vpt neg V hpt vpt neg V
  hpt vpt V hpt neg vpt V closepath stroke
  Pnt} def
/Pls {stroke [] 0 setdash vpt sub M 0 vpt2 V
  currentpoint stroke M
  hpt neg vpt neg R hpt2 0 V stroke
 } def
/Box {stroke [] 0 setdash 2 copy exch hpt sub exch vpt add M
  0 vpt2 neg V hpt2 0 V 0 vpt2 V
  hpt2 neg 0 V closepath stroke
  Pnt} def
/Crs {stroke [] 0 setdash exch hpt sub exch vpt add M
  hpt2 vpt2 neg V currentpoint stroke M
  hpt2 neg 0 R hpt2 vpt2 V stroke} def
/TriU {stroke [] 0 setdash 2 copy vpt 1.12 mul add M
  hpt neg vpt -1.62 mul V
  hpt 2 mul 0 V
  hpt neg vpt 1.62 mul V closepath stroke
  Pnt} def
/Star {2 copy Pls Crs} def
/BoxF {stroke [] 0 setdash exch hpt sub exch vpt add M
  0 vpt2 neg V hpt2 0 V 0 vpt2 V
  hpt2 neg 0 V closepath fill} def
/TriUF {stroke [] 0 setdash vpt 1.12 mul add M
  hpt neg vpt -1.62 mul V
  hpt 2 mul 0 V
  hpt neg vpt 1.62 mul V closepath fill} def
/TriD {stroke [] 0 setdash 2 copy vpt 1.12 mul sub M
  hpt neg vpt 1.62 mul V
  hpt 2 mul 0 V
  hpt neg vpt -1.62 mul V closepath stroke
  Pnt} def
/TriDF {stroke [] 0 setdash vpt 1.12 mul sub M
  hpt neg vpt 1.62 mul V
  hpt 2 mul 0 V
  hpt neg vpt -1.62 mul V closepath fill} def
/DiaF {stroke [] 0 setdash vpt add M
  hpt neg vpt neg V hpt vpt neg V
  hpt vpt V hpt neg vpt V closepath fill} def
/Pent {stroke [] 0 setdash 2 copy gsave
  translate 0 hpt M 4 {72 rotate 0 hpt L} repeat
  closepath stroke grestore Pnt} def
/PentF {stroke [] 0 setdash gsave
  translate 0 hpt M 4 {72 rotate 0 hpt L} repeat
  closepath fill grestore} def
/Circle {stroke [] 0 setdash 2 copy
  hpt 0 360 arc stroke Pnt} def
/CircleF {stroke [] 0 setdash hpt 0 360 arc fill} def
/C0 {BL [] 0 setdash 2 copy moveto vpt 90 450 arc} bind def
/C1 {BL [] 0 setdash 2 copy moveto
	2 copy vpt 0 90 arc closepath fill
	vpt 0 360 arc closepath} bind def
/C2 {BL [] 0 setdash 2 copy moveto
	2 copy vpt 90 180 arc closepath fill
	vpt 0 360 arc closepath} bind def
/C3 {BL [] 0 setdash 2 copy moveto
	2 copy vpt 0 180 arc closepath fill
	vpt 0 360 arc closepath} bind def
/C4 {BL [] 0 setdash 2 copy moveto
	2 copy vpt 180 270 arc closepath fill
	vpt 0 360 arc closepath} bind def
/C5 {BL [] 0 setdash 2 copy moveto
	2 copy vpt 0 90 arc
	2 copy moveto
	2 copy vpt 180 270 arc closepath fill
	vpt 0 360 arc} bind def
/C6 {BL [] 0 setdash 2 copy moveto
	2 copy vpt 90 270 arc closepath fill
	vpt 0 360 arc closepath} bind def
/C7 {BL [] 0 setdash 2 copy moveto
	2 copy vpt 0 270 arc closepath fill
	vpt 0 360 arc closepath} bind def
/C8 {BL [] 0 setdash 2 copy moveto
	2 copy vpt 270 360 arc closepath fill
	vpt 0 360 arc closepath} bind def
/C9 {BL [] 0 setdash 2 copy moveto
	2 copy vpt 270 450 arc closepath fill
	vpt 0 360 arc closepath} bind def
/C10 {BL [] 0 setdash 2 copy 2 copy moveto vpt 270 360 arc closepath fill
	2 copy moveto
	2 copy vpt 90 180 arc closepath fill
	vpt 0 360 arc closepath} bind def
/C11 {BL [] 0 setdash 2 copy moveto
	2 copy vpt 0 180 arc closepath fill
	2 copy moveto
	2 copy vpt 270 360 arc closepath fill
	vpt 0 360 arc closepath} bind def
/C12 {BL [] 0 setdash 2 copy moveto
	2 copy vpt 180 360 arc closepath fill
	vpt 0 360 arc closepath} bind def
/C13 {BL [] 0 setdash 2 copy moveto
	2 copy vpt 0 90 arc closepath fill
	2 copy moveto
	2 copy vpt 180 360 arc closepath fill
	vpt 0 360 arc closepath} bind def
/C14 {BL [] 0 setdash 2 copy moveto
	2 copy vpt 90 360 arc closepath fill
	vpt 0 360 arc} bind def
/C15 {BL [] 0 setdash 2 copy vpt 0 360 arc closepath fill
	vpt 0 360 arc closepath} bind def
/Rec {newpath 4 2 roll moveto 1 index 0 rlineto 0 exch rlineto
	neg 0 rlineto closepath} bind def
/Square {dup Rec} bind def
/Bsquare {vpt sub exch vpt sub exch vpt2 Square} bind def
/S0 {BL [] 0 setdash 2 copy moveto 0 vpt rlineto BL Bsquare} bind def
/S1 {BL [] 0 setdash 2 copy vpt Square fill Bsquare} bind def
/S2 {BL [] 0 setdash 2 copy exch vpt sub exch vpt Square fill Bsquare} bind def
/S3 {BL [] 0 setdash 2 copy exch vpt sub exch vpt2 vpt Rec fill Bsquare} bind def
/S4 {BL [] 0 setdash 2 copy exch vpt sub exch vpt sub vpt Square fill Bsquare} bind def
/S5 {BL [] 0 setdash 2 copy 2 copy vpt Square fill
	exch vpt sub exch vpt sub vpt Square fill Bsquare} bind def
/S6 {BL [] 0 setdash 2 copy exch vpt sub exch vpt sub vpt vpt2 Rec fill Bsquare} bind def
/S7 {BL [] 0 setdash 2 copy exch vpt sub exch vpt sub vpt vpt2 Rec fill
	2 copy vpt Square fill Bsquare} bind def
/S8 {BL [] 0 setdash 2 copy vpt sub vpt Square fill Bsquare} bind def
/S9 {BL [] 0 setdash 2 copy vpt sub vpt vpt2 Rec fill Bsquare} bind def
/S10 {BL [] 0 setdash 2 copy vpt sub vpt Square fill 2 copy exch vpt sub exch vpt Square fill
	Bsquare} bind def
/S11 {BL [] 0 setdash 2 copy vpt sub vpt Square fill 2 copy exch vpt sub exch vpt2 vpt Rec fill
	Bsquare} bind def
/S12 {BL [] 0 setdash 2 copy exch vpt sub exch vpt sub vpt2 vpt Rec fill Bsquare} bind def
/S13 {BL [] 0 setdash 2 copy exch vpt sub exch vpt sub vpt2 vpt Rec fill
	2 copy vpt Square fill Bsquare} bind def
/S14 {BL [] 0 setdash 2 copy exch vpt sub exch vpt sub vpt2 vpt Rec fill
	2 copy exch vpt sub exch vpt Square fill Bsquare} bind def
/S15 {BL [] 0 setdash 2 copy Bsquare fill Bsquare} bind def
/D0 {gsave translate 45 rotate 0 0 S0 stroke grestore} bind def
/D1 {gsave translate 45 rotate 0 0 S1 stroke grestore} bind def
/D2 {gsave translate 45 rotate 0 0 S2 stroke grestore} bind def
/D3 {gsave translate 45 rotate 0 0 S3 stroke grestore} bind def
/D4 {gsave translate 45 rotate 0 0 S4 stroke grestore} bind def
/D5 {gsave translate 45 rotate 0 0 S5 stroke grestore} bind def
/D6 {gsave translate 45 rotate 0 0 S6 stroke grestore} bind def
/D7 {gsave translate 45 rotate 0 0 S7 stroke grestore} bind def
/D8 {gsave translate 45 rotate 0 0 S8 stroke grestore} bind def
/D9 {gsave translate 45 rotate 0 0 S9 stroke grestore} bind def
/D10 {gsave translate 45 rotate 0 0 S10 stroke grestore} bind def
/D11 {gsave translate 45 rotate 0 0 S11 stroke grestore} bind def
/D12 {gsave translate 45 rotate 0 0 S12 stroke grestore} bind def
/D13 {gsave translate 45 rotate 0 0 S13 stroke grestore} bind def
/D14 {gsave translate 45 rotate 0 0 S14 stroke grestore} bind def
/D15 {gsave translate 45 rotate 0 0 S15 stroke grestore} bind def
/DiaE {stroke [] 0 setdash vpt add M
  hpt neg vpt neg V hpt vpt neg V
  hpt vpt V hpt neg vpt V closepath stroke} def
/BoxE {stroke [] 0 setdash exch hpt sub exch vpt add M
  0 vpt2 neg V hpt2 0 V 0 vpt2 V
  hpt2 neg 0 V closepath stroke} def
/TriUE {stroke [] 0 setdash vpt 1.12 mul add M
  hpt neg vpt -1.62 mul V
  hpt 2 mul 0 V
  hpt neg vpt 1.62 mul V closepath stroke} def
/TriDE {stroke [] 0 setdash vpt 1.12 mul sub M
  hpt neg vpt 1.62 mul V
  hpt 2 mul 0 V
  hpt neg vpt -1.62 mul V closepath stroke} def
/PentE {stroke [] 0 setdash gsave
  translate 0 hpt M 4 {72 rotate 0 hpt L} repeat
  closepath stroke grestore} def
/CircE {stroke [] 0 setdash 
  hpt 0 360 arc stroke} def
/Opaque {gsave closepath 1 setgray fill grestore 0 setgray closepath} def
/DiaW {stroke [] 0 setdash vpt add M
  hpt neg vpt neg V hpt vpt neg V
  hpt vpt V hpt neg vpt V Opaque stroke} def
/BoxW {stroke [] 0 setdash exch hpt sub exch vpt add M
  0 vpt2 neg V hpt2 0 V 0 vpt2 V
  hpt2 neg 0 V Opaque stroke} def
/TriUW {stroke [] 0 setdash vpt 1.12 mul add M
  hpt neg vpt -1.62 mul V
  hpt 2 mul 0 V
  hpt neg vpt 1.62 mul V Opaque stroke} def
/TriDW {stroke [] 0 setdash vpt 1.12 mul sub M
  hpt neg vpt 1.62 mul V
  hpt 2 mul 0 V
  hpt neg vpt -1.62 mul V Opaque stroke} def
/PentW {stroke [] 0 setdash gsave
  translate 0 hpt M 4 {72 rotate 0 hpt L} repeat
  Opaque stroke grestore} def
/CircW {stroke [] 0 setdash 
  hpt 0 360 arc Opaque stroke} def
/BoxFill {gsave Rec 1 setgray fill grestore} def
/Density {
  /Fillden exch def
  currentrgbcolor
  /ColB exch def /ColG exch def /ColR exch def
  /ColR ColR Fillden mul Fillden sub 1 add def
  /ColG ColG Fillden mul Fillden sub 1 add def
  /ColB ColB Fillden mul Fillden sub 1 add def
  ColR ColG ColB setrgbcolor} def
/BoxColFill {gsave Rec PolyFill} def
/PolyFill {gsave Density fill grestore grestore} def
/h {rlineto rlineto rlineto gsave closepath fill grestore} bind def
%
% PostScript Level 1 Pattern Fill routine for rectangles
% Usage: x y w h s a XX PatternFill
%	x,y = lower left corner of box to be filled
%	w,h = width and height of box
%	  a = angle in degrees between lines and x-axis
%	 XX = 0/1 for no/yes cross-hatch
%
/PatternFill {gsave /PFa [ 9 2 roll ] def
  PFa 0 get PFa 2 get 2 div add PFa 1 get PFa 3 get 2 div add translate
  PFa 2 get -2 div PFa 3 get -2 div PFa 2 get PFa 3 get Rec
  TransparentPatterns {} {gsave 1 setgray fill grestore} ifelse
  clip
  currentlinewidth 0.5 mul setlinewidth
  /PFs PFa 2 get dup mul PFa 3 get dup mul add sqrt def
  0 0 M PFa 5 get rotate PFs -2 div dup translate
  0 1 PFs PFa 4 get div 1 add floor cvi
	{PFa 4 get mul 0 M 0 PFs V} for
  0 PFa 6 get ne {
	0 1 PFs PFa 4 get div 1 add floor cvi
	{PFa 4 get mul 0 2 1 roll M PFs 0 V} for
 } if
  stroke grestore} def
%
/languagelevel where
 {pop languagelevel} {1} ifelse
dup 2 lt
	{/InterpretLevel1 true def
	 /InterpretLevel3 false def}
	{/InterpretLevel1 Level1 def
	 2 gt
	    {/InterpretLevel3 Level3 def}
	    {/InterpretLevel3 false def}
	 ifelse }
 ifelse
%
% PostScript level 2 pattern fill definitions
%
/Level2PatternFill {
/Tile8x8 {/PaintType 2 /PatternType 1 /TilingType 1 /BBox [0 0 8 8] /XStep 8 /YStep 8}
	bind def
/KeepColor {currentrgbcolor [/Pattern /DeviceRGB] setcolorspace} bind def
<< Tile8x8
 /PaintProc {0.5 setlinewidth pop 0 0 M 8 8 L 0 8 M 8 0 L stroke} 
>> matrix makepattern
/Pat1 exch def
<< Tile8x8
 /PaintProc {0.5 setlinewidth pop 0 0 M 8 8 L 0 8 M 8 0 L stroke
	0 4 M 4 8 L 8 4 L 4 0 L 0 4 L stroke}
>> matrix makepattern
/Pat2 exch def
<< Tile8x8
 /PaintProc {0.5 setlinewidth pop 0 0 M 0 8 L
	8 8 L 8 0 L 0 0 L fill}
>> matrix makepattern
/Pat3 exch def
<< Tile8x8
 /PaintProc {0.5 setlinewidth pop -4 8 M 8 -4 L
	0 12 M 12 0 L stroke}
>> matrix makepattern
/Pat4 exch def
<< Tile8x8
 /PaintProc {0.5 setlinewidth pop -4 0 M 8 12 L
	0 -4 M 12 8 L stroke}
>> matrix makepattern
/Pat5 exch def
<< Tile8x8
 /PaintProc {0.5 setlinewidth pop -2 8 M 4 -4 L
	0 12 M 8 -4 L 4 12 M 10 0 L stroke}
>> matrix makepattern
/Pat6 exch def
<< Tile8x8
 /PaintProc {0.5 setlinewidth pop -2 0 M 4 12 L
	0 -4 M 8 12 L 4 -4 M 10 8 L stroke}
>> matrix makepattern
/Pat7 exch def
<< Tile8x8
 /PaintProc {0.5 setlinewidth pop 8 -2 M -4 4 L
	12 0 M -4 8 L 12 4 M 0 10 L stroke}
>> matrix makepattern
/Pat8 exch def
<< Tile8x8
 /PaintProc {0.5 setlinewidth pop 0 -2 M 12 4 L
	-4 0 M 12 8 L -4 4 M 8 10 L stroke}
>> matrix makepattern
/Pat9 exch def
/Pattern1 {PatternBgnd KeepColor Pat1 setpattern} bind def
/Pattern2 {PatternBgnd KeepColor Pat2 setpattern} bind def
/Pattern3 {PatternBgnd KeepColor Pat3 setpattern} bind def
/Pattern4 {PatternBgnd KeepColor Landscape {Pat5} {Pat4} ifelse setpattern} bind def
/Pattern5 {PatternBgnd KeepColor Landscape {Pat4} {Pat5} ifelse setpattern} bind def
/Pattern6 {PatternBgnd KeepColor Landscape {Pat9} {Pat6} ifelse setpattern} bind def
/Pattern7 {PatternBgnd KeepColor Landscape {Pat8} {Pat7} ifelse setpattern} bind def
} def
%
%
%End of PostScript Level 2 code
%
/PatternBgnd {
  TransparentPatterns {} {gsave 1 setgray fill grestore} ifelse
} def
%
% Substitute for Level 2 pattern fill codes with
% grayscale if Level 2 support is not selected.
%
/Level1PatternFill {
/Pattern1 {0.250 Density} bind def
/Pattern2 {0.500 Density} bind def
/Pattern3 {0.750 Density} bind def
/Pattern4 {0.125 Density} bind def
/Pattern5 {0.375 Density} bind def
/Pattern6 {0.625 Density} bind def
/Pattern7 {0.875 Density} bind def
} def
%
% Now test for support of Level 2 code
%
Level1 {Level1PatternFill} {Level2PatternFill} ifelse
%
/Symbol-Oblique /Symbol findfont [1 0 .167 1 0 0] makefont
dup length dict begin {1 index /FID eq {pop pop} {def} ifelse} forall
currentdict end definefont pop
%
/MFshow {
   { dup 5 get 3 ge
     { 5 get 3 eq {gsave} {grestore} ifelse }
     {dup dup 0 get findfont exch 1 get scalefont setfont
     [ currentpoint ] exch dup 2 get 0 exch R dup 5 get 2 ne {dup dup 6
     get exch 4 get {textshow} {stringwidth pop 0 R} ifelse }if dup 5 get 0 eq
     {dup 3 get {2 get neg 0 exch R pop} {pop aload pop M} ifelse} {dup 5
     get 1 eq {dup 2 get exch dup 3 get exch 6 get stringwidth pop -2 div
     dup 0 R} {dup 6 get stringwidth pop -2 div 0 R 6 get
     textshow 2 index {aload pop M neg 3 -1 roll neg R pop pop} {pop pop pop
     pop aload pop M} ifelse }ifelse }ifelse }
     ifelse }
   forall} def
/Gswidth {dup type /stringtype eq {stringwidth} {pop (n) stringwidth} ifelse} def
/MFwidth {0 exch { dup 5 get 3 ge { 5 get 3 eq { 0 } { pop } ifelse }
 {dup 3 get{dup dup 0 get findfont exch 1 get scalefont setfont
     6 get Gswidth pop add} {pop} ifelse} ifelse} forall} def
/MLshow { currentpoint stroke M
  0 exch R
  Blacktext {gsave 0 setgray MFshow grestore} {MFshow} ifelse } bind def
/MRshow { currentpoint stroke M
  exch dup MFwidth neg 3 -1 roll R
  Blacktext {gsave 0 setgray MFshow grestore} {MFshow} ifelse } bind def
/MCshow { currentpoint stroke M
  exch dup MFwidth -2 div 3 -1 roll R
  Blacktext {gsave 0 setgray MFshow grestore} {MFshow} ifelse } bind def
/XYsave    { [( ) 1 2 true false 3 ()] } bind def
/XYrestore { [( ) 1 2 true false 4 ()] } bind def
Level1 SuppressPDFMark or 
{} {
/SDict 10 dict def
systemdict /pdfmark known not {
  userdict /pdfmark systemdict /cleartomark get put
} if
SDict begin [
  /Title (Na_chain_bands_1D_3D.eps)
  /Subject (gnuplot plot)
  /Creator (gnuplot 5.0 patchlevel rc2)
  /Author (micael)
%  /Producer (gnuplot)
%  /Keywords ()
  /CreationDate (Thu Aug 23 17:11:41 2018)
  /DOCINFO pdfmark
end
} ifelse
end
%
% Support for boxed text - Ethan A Merritt May 2005
%
/InitTextBox { userdict /TBy2 3 -1 roll put userdict /TBx2 3 -1 roll put
           userdict /TBy1 3 -1 roll put userdict /TBx1 3 -1 roll put
	   /Boxing true def } def
/ExtendTextBox { Boxing
    { gsave dup false charpath pathbbox
      dup TBy2 gt {userdict /TBy2 3 -1 roll put} {pop} ifelse
      dup TBx2 gt {userdict /TBx2 3 -1 roll put} {pop} ifelse
      dup TBy1 lt {userdict /TBy1 3 -1 roll put} {pop} ifelse
      dup TBx1 lt {userdict /TBx1 3 -1 roll put} {pop} ifelse
      grestore } if } def
/PopTextBox { newpath TBx1 TBxmargin sub TBy1 TBymargin sub M
               TBx1 TBxmargin sub TBy2 TBymargin add L
	       TBx2 TBxmargin add TBy2 TBymargin add L
	       TBx2 TBxmargin add TBy1 TBymargin sub L closepath } def
/DrawTextBox { PopTextBox stroke /Boxing false def} def
/FillTextBox { gsave PopTextBox 1 1 1 setrgbcolor fill grestore /Boxing false def} def
0 0 0 0 InitTextBox
/TBxmargin 20 def
/TBymargin 20 def
/Boxing false def
/textshow { ExtendTextBox Gshow } def
%
%%EndProlog
%%Page: 1 1
gnudict begin
gsave
doclip
50 50 translate
0.100 0.100 scale
90 rotate
0 -6120 translate
0 setgray
newpath
(Monospace-Bold) findfont 250 scalefont setfont
BackgroundColor 0 lt 3 1 roll 0 lt exch 0 lt or or not {gsave BackgroundColor C clippath fill grestore} if
1.000 UL
LTb
LCb setrgbcolor
1875 1375 M
63 0 V
5306 0 R
-63 0 V
stroke
1725 1375 M
[ [(Monospace-Bold) 250.0 0.0 true true 0 (-1)]
] -83.3 MRshow
1.000 UL
LTb
LCb setrgbcolor
1875 1657 M
31 0 V
5338 0 R
-31 0 V
1875 1938 M
63 0 V
5306 0 R
-63 0 V
stroke
1725 1938 M
[ [(Monospace-Bold) 250.0 0.0 true true 0 ( 0)]
] -83.3 MRshow
1.000 UL
LTb
LCb setrgbcolor
1875 2220 M
31 0 V
5338 0 R
-31 0 V
1875 2502 M
63 0 V
5306 0 R
-63 0 V
stroke
1725 2502 M
[ [(Monospace-Bold) 250.0 0.0 true true 0 ( 1)]
] -83.3 MRshow
1.000 UL
LTb
LCb setrgbcolor
1875 2784 M
31 0 V
5338 0 R
-31 0 V
1875 3065 M
63 0 V
5306 0 R
-63 0 V
stroke
1725 3065 M
[ [(Monospace-Bold) 250.0 0.0 true true 0 ( 2)]
] -83.3 MRshow
1.000 UL
LTb
LCb setrgbcolor
1875 3347 M
31 0 V
5338 0 R
-31 0 V
1875 3629 M
63 0 V
5306 0 R
-63 0 V
stroke
1725 3629 M
[ [(Monospace-Bold) 250.0 0.0 true true 0 ( 3)]
] -83.3 MRshow
1.000 UL
LTb
LCb setrgbcolor
1875 3910 M
31 0 V
5338 0 R
-31 0 V
1875 4192 M
63 0 V
5306 0 R
-63 0 V
stroke
1725 4192 M
[ [(Monospace-Bold) 250.0 0.0 true true 0 ( 4)]
] -83.3 MRshow
1.000 UL
LTb
LCb setrgbcolor
1875 4474 M
31 0 V
5338 0 R
-31 0 V
1875 4756 M
63 0 V
5306 0 R
-63 0 V
stroke
1725 4756 M
[ [(Monospace-Bold) 250.0 0.0 true true 0 ( 5)]
] -83.3 MRshow
1.000 UL
LTb
LCb setrgbcolor
1875 5037 M
31 0 V
5338 0 R
-31 0 V
1875 5319 M
63 0 V
5306 0 R
-63 0 V
stroke
1725 5319 M
[ [(Monospace-Bold) 250.0 0.0 true true 0 ( 6)]
] -83.3 MRshow
1.000 UL
LTb
LCb setrgbcolor
1875 1375 M
0 63 V
0 3881 R
0 -63 V
stroke
1875 1125 M
[ [(Monospace-Bold) 250.0 0.0 true true 0 ( 0)]
] -83.3 MCshow
1.000 UL
LTb
LCb setrgbcolor
2949 1375 M
0 63 V
0 3881 R
0 -63 V
stroke
2949 1125 M
[ [(Monospace-Bold) 250.0 0.0 true true 0 ( 0.1)]
] -83.3 MCshow
1.000 UL
LTb
LCb setrgbcolor
4023 1375 M
0 63 V
0 3881 R
0 -63 V
stroke
4023 1125 M
[ [(Monospace-Bold) 250.0 0.0 true true 0 ( 0.2)]
] -83.3 MCshow
1.000 UL
LTb
LCb setrgbcolor
5096 1375 M
0 63 V
0 3881 R
0 -63 V
stroke
5096 1125 M
[ [(Monospace-Bold) 250.0 0.0 true true 0 ( 0.3)]
] -83.3 MCshow
1.000 UL
LTb
LCb setrgbcolor
6170 1375 M
0 63 V
0 3881 R
0 -63 V
stroke
6170 1125 M
[ [(Monospace-Bold) 250.0 0.0 true true 0 ( 0.4)]
] -83.3 MCshow
1.000 UL
LTb
LCb setrgbcolor
7244 1375 M
0 63 V
0 3881 R
0 -63 V
stroke
7244 1125 M
[ [(Monospace-Bold) 250.0 0.0 true true 0 ( 0.5)]
] -83.3 MCshow
1.000 UL
LTb
LCb setrgbcolor
1.000 UL
LTa
LCb setrgbcolor
1875 1938 M
5369 0 V
stroke
LTa
LCb setrgbcolor
1875 1375 M
0 3944 V
stroke
LTb
LCb setrgbcolor
1875 5319 N
0 -3944 V
5369 0 V
0 3944 V
-5369 0 V
Z stroke
1.000 UP
1.000 UL
LTb
LCb setrgbcolor
LCb setrgbcolor
1150 3347 M
currentpoint gsave translate -270 rotate 0 0 moveto
[ [(Monospace-Bold) 250.0 0.0 true true 0 (E \(eV\))]
] -83.3 MCshow
grestore
LTb
LCb setrgbcolor
4559 750 M
[ [(Monospace-Bold) 250.0 0.0 true true 0 (k)]
[(Monospace-Bold) 200.0 -75.0 true true 0 (x)]
[(Monospace-Bold) 250.0 0.0 true true 0 (/G)]
[(Monospace-Bold) 200.0 -75.0 true true 0 (x)]
] -58.3 MCshow
LTb
% Begin plot #1
1.000 UP
1.000 UL
LTb
0.58 0.00 0.83 C 1875 1612 M
384 6 V
383 20 V
384 34 V
383 47 V
384 60 V
383 73 V
384 86 V
383 100 V
383 113 V
384 126 V
383 139 V
384 151 V
383 160 V
384 122 V
1875 1612 CircleF
2259 1618 CircleF
2642 1638 CircleF
3026 1672 CircleF
3409 1719 CircleF
3793 1779 CircleF
4176 1852 CircleF
4560 1938 CircleF
4943 2038 CircleF
5326 2151 CircleF
5710 2277 CircleF
6093 2416 CircleF
6477 2567 CircleF
6860 2727 CircleF
7244 2849 CircleF
% End plot #1
% Begin plot #2
1.000 UP
1.000 UL
LTb
0.58 0.00 0.83 C 1875 2946 M
384 7 V
383 20 V
384 34 V
383 47 V
384 60 V
383 74 V
384 87 V
383 100 V
383 114 V
384 126 V
383 -80 V
384 -214 V
383 -198 V
384 -135 V
1875 2946 CircleF
2259 2953 CircleF
2642 2973 CircleF
3026 3007 CircleF
3409 3054 CircleF
3793 3114 CircleF
4176 3188 CircleF
4560 3275 CircleF
4943 3375 CircleF
5326 3489 CircleF
5710 3615 CircleF
6093 3535 CircleF
6477 3321 CircleF
6860 3123 CircleF
7244 2988 CircleF
% End plot #2
% Begin plot #3
1.000 UP
1.000 UL
LTb
0.58 0.00 0.83 C 1875 2946 M
384 7 V
383 20 V
384 34 V
383 47 V
384 60 V
383 74 V
384 87 V
383 100 V
383 114 V
384 126 V
383 139 V
384 149 V
383 151 V
384 96 V
1875 2946 CircleF
2259 2953 CircleF
2642 2973 CircleF
3026 3007 CircleF
3409 3054 CircleF
3793 3114 CircleF
4176 3188 CircleF
4560 3275 CircleF
4943 3375 CircleF
5326 3489 CircleF
5710 3615 CircleF
6093 3754 CircleF
6477 3903 CircleF
6860 4054 CircleF
7244 4150 CircleF
% End plot #3
% Begin plot #4
1.000 UP
1.000 UL
LTb
0.58 0.00 0.83 C 1875 4116 M
384 7 V
383 19 V
384 31 V
383 44 V
384 53 V
383 56 V
384 24 V
383 -130 V
383 -225 V
384 -234 V
383 -7 V
384 149 V
383 151 V
384 96 V
1875 4116 CircleF
2259 4123 CircleF
2642 4142 CircleF
3026 4173 CircleF
3409 4217 CircleF
3793 4270 CircleF
4176 4326 CircleF
4560 4350 CircleF
4943 4220 CircleF
5326 3995 CircleF
5710 3761 CircleF
6093 3754 CircleF
6477 3903 CircleF
6860 4054 CircleF
7244 4150 CircleF
% End plot #4
% Begin plot #5
1.000 UP
1.000 UL
LTb
0.58 0.00 0.83 C 1875 4135 M
384 6 V
383 21 V
384 33 V
383 48 V
384 61 V
383 74 V
384 87 V
383 102 V
383 114 V
384 128 V
383 103 V
384 -215 V
383 -192 V
384 -108 V
1875 4135 CircleF
2259 4141 CircleF
2642 4162 CircleF
3026 4195 CircleF
3409 4243 CircleF
3793 4304 CircleF
4176 4378 CircleF
4560 4465 CircleF
4943 4567 CircleF
5326 4681 CircleF
5710 4809 CircleF
6093 4912 CircleF
6477 4697 CircleF
6860 4505 CircleF
7244 4397 CircleF
% End plot #5
% Begin plot #6
1.000 UP
1.000 UL
LTb
0.00 0.62 0.45 C 1875 1612 M
384 6 V
383 20 V
384 34 V
383 46 V
384 61 V
383 73 V
384 86 V
383 100 V
383 113 V
384 126 V
383 139 V
384 151 V
383 160 V
384 123 V
1875 1612 Circle
2259 1618 Circle
2642 1638 Circle
3026 1672 Circle
3409 1718 Circle
3793 1779 Circle
4176 1852 Circle
4560 1938 Circle
4943 2038 Circle
5326 2151 Circle
5710 2277 Circle
6093 2416 Circle
6477 2567 Circle
6860 2727 Circle
7244 2850 Circle
% End plot #6
% Begin plot #7
1.000 UP
1.000 UL
LTb
0.00 0.62 0.45 C 1875 2951 M
384 7 V
383 20 V
384 34 V
383 47 V
384 60 V
383 74 V
384 87 V
383 101 V
383 113 V
384 127 V
383 -88 V
384 -213 V
383 -197 V
384 -136 V
1875 2951 Circle
2259 2958 Circle
2642 2978 Circle
3026 3012 Circle
3409 3059 Circle
3793 3119 Circle
4176 3193 Circle
4560 3280 Circle
4943 3381 Circle
5326 3494 Circle
5710 3621 Circle
6093 3533 Circle
6477 3320 Circle
6860 3123 Circle
7244 2987 Circle
% End plot #7
% Begin plot #8
1.000 UP
1.000 UL
LTb
0.00 0.62 0.45 C 1875 2951 M
384 7 V
383 20 V
384 34 V
383 47 V
384 60 V
383 74 V
384 87 V
383 101 V
383 113 V
384 127 V
383 139 V
384 149 V
383 152 V
384 96 V
1875 2951 Circle
2259 2958 Circle
2642 2978 Circle
3026 3012 Circle
3409 3059 Circle
3793 3119 Circle
4176 3193 Circle
4560 3280 Circle
4943 3381 Circle
5326 3494 Circle
5710 3621 Circle
6093 3760 Circle
6477 3909 Circle
6860 4061 Circle
7244 4157 Circle
% End plot #8
% Begin plot #9
1.000 UP
1.000 UL
LTb
0.00 0.62 0.45 C 1875 3392 M
384 7 V
383 20 V
384 33 V
383 47 V
384 60 V
383 73 V
384 85 V
383 95 V
383 77 V
384 -137 V
383 8 V
384 149 V
383 152 V
384 96 V
1875 3392 Circle
2259 3399 Circle
2642 3419 Circle
3026 3452 Circle
3409 3499 Circle
3793 3559 Circle
4176 3632 Circle
4560 3717 Circle
4943 3812 Circle
5326 3889 Circle
5710 3752 Circle
6093 3760 Circle
6477 3909 Circle
6860 4061 Circle
7244 4157 Circle
% End plot #9
% Begin plot #10
1.000 UP
1.000 UL
LTb
0.00 0.62 0.45 C 1875 3685 M
384 7 V
383 20 V
384 34 V
383 47 V
384 61 V
383 74 V
384 88 V
383 101 V
383 -52 V
384 23 V
383 130 V
384 151 V
383 140 V
384 -110 V
1875 3685 Circle
2259 3692 Circle
2642 3712 Circle
3026 3746 Circle
3409 3793 Circle
3793 3854 Circle
4176 3928 Circle
4560 4016 Circle
4943 4117 Circle
5326 4065 Circle
5710 4088 Circle
6093 4218 Circle
6477 4369 Circle
6860 4509 Circle
7244 4399 Circle
% End plot #10
% Begin plot #11
1.000 UL
LTb
0.58 0.00 0.83 C LCb setrgbcolor
3675 5131 M
[ [(Monospace-Bold) 250.0 0.0 true true 0 (1D-periodic)]
] -83.3 MRshow
1.000 UL
LTb
0.58 0.00 0.83 C 3825 5131 M
663 0 V
% End plot #11
% Begin plot #12
stroke
LTb
0.00 0.62 0.45 C LCb setrgbcolor
3675 4881 M
[ [(Monospace-Bold) 250.0 0.0 true true 0 (3D-periodic)]
] -83.3 MRshow
1.000 UL
LTb
0.00 0.62 0.45 C 3825 4881 M
663 0 V
% End plot #12
stroke
2.000 UL
LTb
LCb setrgbcolor
1.000 UL
LTb
LCb setrgbcolor
1875 5319 N
0 -3944 V
5369 0 V
0 3944 V
-5369 0 V
Z stroke
1.000 UP
1.000 UL
LTb
LCb setrgbcolor
stroke
grestore
end
showpage
%%Trailer
%%DocumentFonts: Monospace-Bold
%%Pages: 1
